{
	"rows" : 
	[
		{
			"CPOSTAG" : "SCONJ",
			"DEPREL" : "mark",
			"FEATS" : 
			[
				"_"
			],
			"FORM" : 
			[
				"kun"
			],
			"HEAD" : "2",
			"ID" : "1",
			"LEMMA" : 
			[
				"kun"
			],
			"PDEPREL" : 
			[
				"_"
			],
			"PHEAD" : "_",
			"POSTAG" : 
			[
				"Pcle",
				"CS"
			]
		},
		{
			"CPOSTAG" : "VERB",
			"DEPREL" : "root",
			"FEATS" : 
			[
				"Mood=Cnd",
				"Number=Sing",
				"Person=3",
				"Voice=Act"
			],
			"FORM" : 
			[
				"sais"
			],
			"HEAD" : "0",
			"ID" : "2",
			"LEMMA" : 
			[
				"saada"
			],
			"PDEPREL" : 
			[
				"Style=Dialectal"
			],
			"PHEAD" : "_",
			"POSTAG" : 
			[
				"V",
				"Act",
				"Cond",
				"Sg3"
			]
		},
		{
			"CPOSTAG" : "DET",
			"DEPREL" : "det",
			"FEATS" : 
			[
				"Case=Gen",
				"Number=Sing",
				"PronType=Dem"
			],
			"FORM" : 
			[
				"tän"
			],
			"HEAD" : "4",
			"ID" : "3",
			"LEMMA" : 
			[
				"tämä"
			],
			"PDEPREL" : 
			[
				"Style=Dialectal"
			],
			"PHEAD" : "_",
			"POSTAG" : 
			[
				"Pron",
				"Dem",
				"Sg",
				"Gen"
			]
		},
		{
			"CPOSTAG" : "NOUN",
			"DEPREL" : "dobj",
			"FEATS" : 
			[
				"Case=Gen",
				"Number=Sing"
			],
			"FORM" : 
			[
				"groban"
			],
			"HEAD" : "2",
			"ID" : "4",
			"LEMMA" : 
			[
				"kroppa"
			],
			"PDEPREL" : 
			[
				"Style=Dialectal"
			],
			"PHEAD" : "_",
			"POSTAG" : 
			[
				"N",
				"Sg",
				"Gen"
			]
		},
		{
			"CPOSTAG" : "ADV",
			"DEPREL" : "advmod",
			"FEATS" : 
			[
				"_"
			],
			"FORM" : 
			[
				"kuntoon"
			],
			"HEAD" : "2",
			"ID" : "5",
			"LEMMA" : 
			[
				"kuntoon"
			],
			"PDEPREL" : 
			[
				"_"
			],
			"PHEAD" : "_",
			"POSTAG" : 
			[
				"Adv"
			]
		},
		{
			"CPOSTAG" : "PRON",
			"DEPREL" : "nmod",
			"FEATS" : 
			[
				"Case=Par",
				"Number=Sing",
				"PronType=Dem"
			],
			"FORM" : 
			[
				"sitä"
			],
			"HEAD" : "4",
			"ID" : "1",
			"LEMMA" : 
			[
				"se"
			],
			"PDEPREL" : 
			[
				"_"
			],
			"PHEAD" : "_",
			"POSTAG" : 
			[
				"Pron",
				"Dem",
				"Sg",
				"Par"
			]
		},
		{
			"CPOSTAG" : "VERB",
			"DEPREL" : "cop",
			"FEATS" : 
			[
				"Mood=Ind",
				"Tense=Past",
				"Voice=Pass"
			],
			"FORM" : 
			[
				"oltiin"
			],
			"HEAD" : "4",
			"ID" : "2",
			"LEMMA" : 
			[
				"olla"
			],
			"PDEPREL" : 
			[
				"_"
			],
			"PHEAD" : "_",
			"POSTAG" : 
			[
				"V",
				"Pass",
				"Ind",
				"Past"
			]
		},
		{
			"CPOSTAG" : "ADV",
			"DEPREL" : "advmod",
			"FEATS" : 
			[
				"_"
			],
			"FORM" : 
			[
				"niin"
			],
			"HEAD" : "4",
			"ID" : "3",
			"LEMMA" : 
			[
				"niin"
			],
			"PDEPREL" : 
			[
				"_"
			],
			"PHEAD" : "_",
			"POSTAG" : 
			[
				"Pcle"
			]
		},
		{
			"CPOSTAG" : "NOUN",
			"DEPREL" : "root",
			"FEATS" : 
			[
				"Case=Par",
				"Number=Sing"
			],
			"FORM" : 
			[
				"daideilijaa"
			],
			"HEAD" : "0",
			"ID" : "4",
			"LEMMA" : 
			[
				"taiteilija"
			],
			"PDEPREL" : 
			[
				"Style=Dialectal"
			],
			"PHEAD" : "_",
			"POSTAG" : 
			[
				"N",
				"Sg",
				"Par"
			]
		},
		{
			"CPOSTAG" : "ADV",
			"DEPREL" : "advmod",
			"FEATS" : 
			[
				"_"
			],
			"FORM" : 
			[
				"niin"
			],
			"HEAD" : "6",
			"ID" : "5",
			"LEMMA" : 
			[
				"niin"
			],
			"PDEPREL" : 
			[
				"_"
			],
			"PHEAD" : "_",
			"POSTAG" : 
			[
				"Pcle"
			]
		},
		{
			"CPOSTAG" : "NOUN",
			"DEPREL" : "conj",
			"FEATS" : 
			[
				"Case=Par",
				"Number=Sing"
			],
			"FORM" : 
			[
				"daideilijaa"
			],
			"HEAD" : "4",
			"ID" : "6",
			"LEMMA" : 
			[
				"taiteilija"
			],
			"PDEPREL" : 
			[
				"Style=Dialectal"
			],
			"PHEAD" : "_",
			"POSTAG" : 
			[
				"N",
				"Sg",
				"Par"
			]
		},
		{
			"CPOSTAG" : "VERB",
			"DEPREL" : "root",
			"FEATS" : 
			[
				"Mood=Imp",
				"Number=Sing",
				"Person=2",
				"Voice=Act"
			],
			"FORM" : 
			[
				"tule"
			],
			"HEAD" : "0",
			"ID" : "1",
			"LEMMA" : 
			[
				"tulla"
			],
			"PDEPREL" : 
			[
				"_"
			],
			"PHEAD" : "_",
			"POSTAG" : 
			[
				"V",
				"Act",
				"Imprt",
				"Sg2"
			]
		},
		{
			"CPOSTAG" : "ADV",
			"DEPREL" : "advmod",
			"FEATS" : 
			[
				"PronType=Dem"
			],
			"FORM" : 
			[
				"tänne"
			],
			"HEAD" : "1",
			"ID" : "2",
			"LEMMA" : 
			[
				"tänne"
			],
			"PDEPREL" : 
			[
				"_"
			],
			"PHEAD" : "_",
			"POSTAG" : 
			[
				"Adv",
				"Dem"
			]
		},
		{
			"CPOSTAG" : "ADV",
			"DEPREL" : "advmod",
			"FEATS" : 
			[
				"_"
			],
			"FORM" : 
			[
				"kyllä"
			],
			"HEAD" : "3",
			"ID" : "1",
			"LEMMA" : 
			[
				"kyllä"
			],
			"PDEPREL" : 
			[
				"_"
			],
			"PHEAD" : "_",
			"POSTAG" : 
			[
				"Pcle"
			]
		},
		{
			"CPOSTAG" : "PRON",
			"DEPREL" : "nsubj",
			"FEATS" : 
			[
				"Case=Nom",
				"Number=Sing",
				"PronType=Dem"
			],
			"FORM" : 
			[
				"se"
			],
			"HEAD" : "3",
			"ID" : "2",
			"LEMMA" : 
			[
				"se"
			],
			"PDEPREL" : 
			[
				"_"
			],
			"PHEAD" : "_",
			"POSTAG" : 
			[
				"Pron",
				"Dem",
				"Sg",
				"Nom"
			]
		},
		{
			"CPOSTAG" : "VERB",
			"DEPREL" : "root",
			"FEATS" : 
			[
				"Mood=Ind",
				"Number=Sing",
				"Person=3",
				"Tense=Pres",
				"Voice=Act"
			],
			"FORM" : 
			[
				"tulee"
			],
			"HEAD" : "0",
			"ID" : "3",
			"LEMMA" : 
			[
				"tulla"
			],
			"PDEPREL" : 
			[
				"_"
			],
			"PHEAD" : "_",
			"POSTAG" : 
			[
				"V",
				"Act",
				"Ind",
				"Pres",
				"Sg3"
			]
		},
		{
			"CPOSTAG" : "NOUN",
			"DEPREL" : "nmod",
			"FEATS" : 
			[
				"Case=Ill",
				"Number=Sing"
			],
			"FORM" : 
			[
				"kotihin"
			],
			"HEAD" : "3",
			"ID" : "4",
			"LEMMA" : 
			[
				"koti"
			],
			"PDEPREL" : 
			[
				"Style=Dialectal"
			],
			"PHEAD" : "_",
			"POSTAG" : 
			[
				"N",
				"Sg",
				"Ill"
			]
		}
	]
}